{
  "project_info": {
    "project_number": "649383052419",
    "project_id": "upskill-7fb59",
    "storage_bucket": "upskill-7fb59.appspot.com"
  },
  "client": [
    {
      "client_info": {
        "mobilesdk_app_id": "1:649383052419:android:5b4a7da9fdacf85b4e47b6",
        "android_client_info": {
          "package_name": "com.example.upSkill"
        }
      },
      "oauth_client": [
        {
          "client_id": "649383052419-5n4n5cejvea5f0grikdbkner1l4hmsti.apps.googleusercontent.com",
          "client_type": 3
        }
      ],
      "api_key": [
        {
          "current_key": "AIzaSyBFYV4AYCtyhhAQoHyHV0WLkM5gkIIHOr8"
        }
      ],
      "services": {
        "appinvite_service": {
          "other_platform_oauth_client": [
            {
              "client_id": "649383052419-5n4n5cejvea5f0grikdbkner1l4hmsti.apps.googleusercontent.com",
              "client_type": 3
            }
          ]
        }
      }
    }
  ],
  "configuration_version": "1"
}